com/projectfuture/repairwebapp/mappers/PropertyOwnerToPropertyOwnerModelMapper.class
com/projectfuture/repairwebapp/model/LoginResponse.class
com/projectfuture/repairwebapp/model/PropertyOwnerModel.class
com/projectfuture/repairwebapp/repository/RepairRepository.class
com/projectfuture/repairwebapp/model/RepairModel.class
com/projectfuture/repairwebapp/exceptions/ExceptionResponse.class
com/projectfuture/repairwebapp/controller/page/IndexController.class
com/projectfuture/repairwebapp/enums/RepairType.class
com/projectfuture/repairwebapp/controller/page/RepairController.class
com/projectfuture/repairwebapp/controller/page/CustomerController.class
com/projectfuture/repairwebapp/service/PropertyOwnerServiceImpl.class
com/projectfuture/repairwebapp/enums/RepairStatus.class
com/projectfuture/repairwebapp/validators/LoginValidator.class
com/projectfuture/repairwebapp/AuthenticationHandlers/LoginSuccessHandler.class
com/projectfuture/repairwebapp/forms/LoginForm.class
com/projectfuture/repairwebapp/mappers/RepairToRepairModelMapper.class
com/projectfuture/repairwebapp/service/RepairServiceImpl.class
com/projectfuture/repairwebapp/SecurityConfig.class
com/projectfuture/repairwebapp/service/PropertyOwnerService.class
com/projectfuture/repairwebapp/service/UserDetailsServiceImpl.class
com/projectfuture/repairwebapp/AuthenticationHandlers/LoginFailureHandler.class
com/projectfuture/repairwebapp/service/RepairService.class
com/projectfuture/repairwebapp/enums/RoleType.class
com/projectfuture/repairwebapp/enums/PropertyType.class
com/projectfuture/repairwebapp/exceptions/GlobalAdviceController.class
com/projectfuture/repairwebapp/domain/PropertyOwner.class
com/projectfuture/repairwebapp/RepairWebAppApplication.class
com/projectfuture/repairwebapp/repository/PropertyOwnerRepository.class
com/projectfuture/repairwebapp/domain/Repair.class
com/projectfuture/repairwebapp/controller/page/LoginController.class
